[
  {
    "bookAuthorName": "Stan Lee",
    "bookAuthorMail": "StanLee@gmail.com"
  },
  {
    "bookAuthorName": "Fyodor Dostoevsky",
    "bookAuthorMail": "FyodorDostoevsky@gmail.com"
  },
  {
    "bookAuthorName": "Susan Wies Bauer",
    "bookAuthorMail": "SusanWiesBauer@gmail.com"
  },
  {
    "bookAuthorName": "Leo Tolstoy",
    "bookAuthorMail": "LeoTolstoy@gmail.com"
  },
  {
    "bookAuthorName": "Frank Miller",
    "bookAuthorMail": "FrankMiller@gmail.com"
  },
  {
    "bookAuthorName": "Jane Austen",
    "bookAuthorMail": "JaneAusten@gmail.com"
  },
  {
    "bookAuthorName": "H. P. Lovecraft",
    "bookAuthorMail": "H.P.Lovecraft@gmail.com"
  },
  {
    "bookAuthorName": "Lucretius",
    "bookAuthorMail": "Lucretius@gmail.com"
  },
  {
    "bookAuthorName": "Bill Willingham",
    "bookAuthorMail": "BillWillingham@gmail.com"
  },
  {
    "bookAuthorName": "J. K. Rowling",
    "bookAuthorMail": "J.K.Rowling@gmail.com"
  },
  {
    "bookAuthorName": "Nicholas Sparks",
    "bookAuthorMail": "NicholasSparks@gmail.com"
  },
  {
    "bookAuthorName": "J. R. R. Tolkien",
    "bookAuthorMail": "J.R.R.Tolkien@gmail.com"
  },
  {
    "bookAuthorName": "Susan Wise Bauer",
    "bookAuthorMail": "SusanWiseBauer@gmail.com"
  },
  {
    "bookAuthorName": "Jawaharlal Nehru",
    "bookAuthorMail": "JawaharlalNehru@gmail.com"
  },
  {
    "bookAuthorName": "Mahatma Gandhi",
    "bookAuthorMail": "MahatmaGandhi@gmail.com"
  },
  {
    "bookAuthorName": "William Shakespeare",
    "bookAuthorMail": "WilliamShakespeare@gmail.com"
  },
  {
    "bookAuthorName": "E. M. Forster",
    "bookAuthorMail": "E.M.Forster@gmail.com"
  },
  {
    "bookAuthorName": "George Eliot",
    "bookAuthorMail": "GeorgeEliot@gmail.com"
  },
  {
    "bookAuthorName": "Elizabeth Von Arnim",
    "bookAuthorMail": "ElizabethVonArnim@gmail.com"
  },
  {
    "bookAuthorName": "L. M. Montgomery",
    "bookAuthorMail": "L.M.Montgomery@gmail.com"
  },
  {
    "bookAuthorName": "Elizabeth Cleghorn Gaskell",
    "bookAuthorMail": "ElizabethCleghornGaskell@gmail.com"
  },
  {
    "bookAuthorName": "T. Smollett",
    "bookAuthorMail": "T.Smollett@gmail.com"
  },
  {
    "bookAuthorName": "Henry Fielding",
    "bookAuthorMail": "HenryFielding@gmail.com"
  },
  {
    "bookAuthorName": "Alexandre Dumas",
    "bookAuthorMail": "AlexandreDumas@gmail.com"
  },
  {
    "bookAuthorName": "Lewis Carroll",
    "bookAuthorMail": "LewisCarroll@gmail.com"
  },
  {
    "bookAuthorName": "Roger S. Pocock",
    "bookAuthorMail": "RogerS.Pocock@gmail.com"
  },
  {
    "bookAuthorName": "Arthur Conan Doyle",
    "bookAuthorMail": "ArthurConanDoyle@gmail.com"
  },
  {
    "bookAuthorName": "Bram Stoker",
    "bookAuthorMail": "BramStoker@gmail.com"
  },
  {
    "bookAuthorName": "Oscar Wilde",
    "bookAuthorMail": "OscarWilde@gmail.com"
  },
  {
    "bookAuthorName": "Nicholas Senn",
    "bookAuthorMail": "NicholasSenn@gmail.com"
  },
  {
    "bookAuthorName": "Charles Dickens",
    "bookAuthorMail": "CharlesDickens@gmail.com"
  },
  {
    "bookAuthorName": "James Joyce",
    "bookAuthorMail": "JamesJoyce@gmail.com"
  },
  {
    "bookAuthorName": "W. E. B. Du Bois",
    "bookAuthorMail": "W.E.B.DuBois@gmail.com"
  },
  {
    "bookAuthorName": "William Tenn",
    "bookAuthorMail": "WilliamTenn@gmail.com"
  },
  {
    "bookAuthorName": "Fyodor Dostoyevsky",
    "bookAuthorMail": "FyodorDostoyevsky@gmail.com"
  },
  {
    "bookAuthorName": "F. Scott Fitzgerald",
    "bookAuthorMail": "F.ScottFitzgerald@gmail.com"
  },
  {
    "bookAuthorName": "Charlotte Perkins Gilman",
    "bookAuthorMail": "CharlottePerkinsGilman@gmail.com"
  },
  {
    "bookAuthorName": "graf Leo Tolstoy",
    "bookAuthorMail": "grafLeoTolstoy@gmail.com"
  },
  {
    "bookAuthorName": "Franz Kafka",
    "bookAuthorMail": "FranzKafka@gmail.com"
  },
  {
    "bookAuthorName": "Jacob Grimm and Wilhelm Grimm",
    "bookAuthorMail": "JacobGrimmandWilhelmGrimm@gmail.com"
  },
  {
    "bookAuthorName": "Homer",
    "bookAuthorMail": "Homer@gmail.com"
  },
  {
    "bookAuthorName": "Edward Kirkpatrick",
    "bookAuthorMail": "EdwardKirkpatrick@gmail.com"
  },
  {
    "bookAuthorName": "John Camden Hotten",
    "bookAuthorMail": "JohnCamdenHotten@gmail.com"
  },
  {
    "bookAuthorName": "A. A. Milne",
    "bookAuthorMail": "A.A.Milne@gmail.com"
  },
  {
    "bookAuthorName": "Robert Louis Stevenson",
    "bookAuthorMail": "RobertLouisStevenson@gmail.com"
  },
  {
    "bookAuthorName": "Jonathan Swift",
    "bookAuthorMail": "JonathanSwift@gmail.com"
  },
  {
    "bookAuthorName": "Henrik Ibsen",
    "bookAuthorMail": "HenrikIbsen@gmail.com"
  },
  {
    "bookAuthorName": "Frederick A. Godcharles",
    "bookAuthorMail": "FrederickA.Godcharles@gmail.com"
  },
  {
    "bookAuthorName": "Grady Ward",
    "bookAuthorMail": "GradyWard@gmail.com"
  },
  {
    "bookAuthorName": "Kahlil Gibran",
    "bookAuthorMail": "KahlilGibran@gmail.com"
  },
  {
    "bookAuthorName": "Ludwig Wittgenstein",
    "bookAuthorMail": "LudwigWittgenstein@gmail.com"
  },
  {
    "bookAuthorName": "Friedrich Wilhelm Nietzsche",
    "bookAuthorMail": "FriedrichWilhelmNietzsche@gmail.com"
  },
  {
    "bookAuthorName": "Mark Twain",
    "bookAuthorMail": "MarkTwain@gmail.com"
  },
  {
    "bookAuthorName": "Nathaniel Hawthorne",
    "bookAuthorMail": "NathanielHawthorne@gmail.com"
  },
  {
    "bookAuthorName": "Plato",
    "bookAuthorMail": "Plato@gmail.com"
  },
  {
    "bookAuthorName": "Sir Mungo William MacCallum",
    "bookAuthorMail": "SirMungoWilliamMacCallum@gmail.com"
  },
  {
    "bookAuthorName": "Nelson Andrews",
    "bookAuthorMail": "NelsonAndrews@gmail.com"
  },
  {
    "bookAuthorName": "Miguel de Cervantes Saavedra",
    "bookAuthorMail": "MigueldeCervantesSaavedra@gmail.com"
  },
  {
    "bookAuthorName": "Vatsyayana",
    "bookAuthorMail": "Vatsyayana@gmail.com"
  },
  {
    "bookAuthorName": "Henry David Thoreau",
    "bookAuthorMail": "HenryDavidThoreau@gmail.com"
  },
  {
    "bookAuthorName": "Louisa May Alcott",
    "bookAuthorMail": "LouisaMayAlcott@gmail.com"
  },
  {
    "bookAuthorName": "H. G. Wells",
    "bookAuthorMail": "H.G.Wells@gmail.com"
  },
  {
    "bookAuthorName": "Bertrand Russell",
    "bookAuthorMail": "BertrandRussell@gmail.com"
  },
  {
    "bookAuthorName": "Emperor of Rome Marcus Aurelius",
    "bookAuthorMail": "EmperorofRomeMarcusAurelius@gmail.com"
  },
  {
    "bookAuthorName": "Joseph Conrad",
    "bookAuthorMail": "JosephConrad@gmail.com"
  },
  {
    "bookAuthorName": "I. B. Pole Evans",
    "bookAuthorMail": "I.B.PoleEvans@gmail.com"
  },
  {
    "bookAuthorName": "L. Frank Baum",
    "bookAuthorMail": "L.FrankBaum@gmail.com"
  },
  {
    "bookAuthorName": "Rudyard Kipling",
    "bookAuthorMail": "RudyardKipling@gmail.com"
  },
  {
    "bookAuthorName": "Benjamin Franklin",
    "bookAuthorMail": "BenjaminFranklin@gmail.com"
  },
  {
    "bookAuthorName": "Equiano",
    "bookAuthorMail": "Equiano@gmail.com"
  },
  {
    "bookAuthorName": "Silvanus P. Thompson",
    "bookAuthorMail": "SilvanusP.Thompson@gmail.com"
  },
  {
    "bookAuthorName": "J. M. Barrie",
    "bookAuthorMail": "J.M.Barrie@gmail.com"
  },
  {
    "bookAuthorName": "Washington Irving",
    "bookAuthorMail": "WashingtonIrving@gmail.com"
  },
  {
    "bookAuthorName": "Boethius",
    "bookAuthorMail": "Boethius@gmail.com"
  },
  {
    "bookAuthorName": "Bishop of Hippo Saint Augustine",
    "bookAuthorMail": "BishopofHippoSaintAugustine@gmail.com"
  },
  {
    "bookAuthorName": "Angus B. Reach",
    "bookAuthorMail": "AngusB.Reach@gmail.com"
  },
  {
    "bookAuthorName": "Miguel de Cervantes",
    "bookAuthorMail": "MigueldeCervantes@gmail.com"
  },
  {
    "bookAuthorName": "Jack London",
    "bookAuthorMail": "JackLondon@gmail.com"
  },
  {
    "bookAuthorName": "Jules Verne",
    "bookAuthorMail": "JulesVerne@gmail.com"
  },
  {
    "bookAuthorName": "Daniel Defoe",
    "bookAuthorMail": "DanielDefoe@gmail.com"
  },
  {
    "bookAuthorName": "Gary Paulsen",
    "bookAuthorMail": "GaryPaulsen@gmail.com"
  },
  {
    "bookAuthorName": "E.B. White",
    "bookAuthorMail": "E.B.White@gmail.com"
  },
  {
    "bookAuthorName": "Sheila Burnford",
    "bookAuthorMail": "SheilaBurnford@gmail.com"
  },
  {
    "bookAuthorName": "Ernest Hemingway",
    "bookAuthorMail": "ErnestHemingway@gmail.com"
  },
  {
    "bookAuthorName": "H. Rider Haggard",
    "bookAuthorMail": "H.RiderHaggard@gmail.com"
  },
  {
    "bookAuthorName": "Jean Craighead George",
    "bookAuthorMail": "JeanCraigheadGeorge@gmail.com"
  },
  {
    "bookAuthorName": "Sid Fleischman",
    "bookAuthorMail": "SidFleischman@gmail.com"
  },
  {
    "bookAuthorName": "John Bunyan",
    "bookAuthorMail": "JohnBunyan@gmail.com"
  },
  {
    "bookAuthorName": "Honoré de Balzac",
    "bookAuthorMail": "HonorédeBalzac@gmail.com"
  },
  {
    "bookAuthorName": "Richard Adams",
    "bookAuthorMail": "RichardAdams@gmail.com"
  },
  {
    "bookAuthorName": "Richard Bach",
    "bookAuthorMail": "RichardBach@gmail.com"
  },
  {
    "bookAuthorName": "Jack Kerouac",
    "bookAuthorMail": "JackKerouac@gmail.com"
  },
  {
    "bookAuthorName": "Johann Wolfgang von Goethe",
    "bookAuthorMail": "JohannWolfgangvonGoethe@gmail.com"
  },
  {
    "bookAuthorName": "Marcel Proust",
    "bookAuthorMail": "MarcelProust@gmail.com"
  },
  {
    "bookAuthorName": "Laura Ingalls Wilder",
    "bookAuthorMail": "LauraIngallsWilder@gmail.com"
  },
  {
    "bookAuthorName": "J.R.R. Tolkien",
    "bookAuthorMail": "J.R.R.Tolkien@gmail.com"
  },
  {
    "bookAuthorName": "Kenneth Grahame",
    "bookAuthorMail": "KennethGrahame@gmail.com"
  },
  {
    "bookAuthorName": "J.K. Rowling",
    "bookAuthorMail": "J.K.Rowling@gmail.com"
  },
  {
    "bookAuthorName": "C.S. Lewis",
    "bookAuthorMail": "C.S.Lewis@gmail.com"
  },
  {
    "bookAuthorName": "J.M. Barrie",
    "bookAuthorMail": "J.M.Barrie@gmail.com"
  },
  {
    "bookAuthorName": "Katherine Paterson",
    "bookAuthorMail": "KatherinePaterson@gmail.com"
  },
  {
    "bookAuthorName": "Natalie Babbitt",
    "bookAuthorMail": "NatalieBabbitt@gmail.com"
  },
  {
    "bookAuthorName": "Christopher Paolini",
    "bookAuthorMail": "ChristopherPaolini@gmail.com"
  },
  {
    "bookAuthorName": "Rick Riordan",
    "bookAuthorMail": "RickRiordan@gmail.com"
  },
  {
    "bookAuthorName": "P.L. Travers",
    "bookAuthorMail": "P.L.Travers@gmail.com"
  },
  {
    "bookAuthorName": "Eoin Colfer",
    "bookAuthorMail": "EoinColfer@gmail.com"
  },
  {
    "bookAuthorName": "Susan Cooper",
    "bookAuthorMail": "SusanCooper@gmail.com"
  },
  {
    "bookAuthorName": "George R.R. Martin",
    "bookAuthorMail": "GeorgeR.R.Martin@gmail.com"
  },
  {
    "bookAuthorName": "Lynne Reid Banks",
    "bookAuthorMail": "LynneReidBanks@gmail.com"
  },
  {
    "bookAuthorName": "Robert C. O'Brien",
    "bookAuthorMail": "RobertC.OBrien@gmail.com"
  },
  {
    "bookAuthorName": "T. H. White",
    "bookAuthorMail": "T.H.White@gmail.com"
  },
  {
    "bookAuthorName": "Philip Pullman",
    "bookAuthorMail": "PhilipPullman@gmail.com"
  },
  {
    "bookAuthorName": "James Hilton",
    "bookAuthorMail": "JamesHilton@gmail.com"
  },
  {
    "bookAuthorName": "Stephen King",
    "bookAuthorMail": "StephenKing@gmail.com"
  },
  {
    "bookAuthorName": "Cornelia Funke",
    "bookAuthorMail": "CorneliaFunke@gmail.com"
  },
  {
    "bookAuthorName": "Norton Juster",
    "bookAuthorMail": "NortonJuster@gmail.com"
  },
  {
    "bookAuthorName": "James Fenimore Cooper",
    "bookAuthorMail": "JamesFenimoreCooper@gmail.com"
  },
  {
    "bookAuthorName": "Victor Hugo",
    "bookAuthorMail": "VictorHugo@gmail.com"
  },
  {
    "bookAuthorName": "Walter Scott",
    "bookAuthorMail": "WalterScott@gmail.com"
  },
  {
    "bookAuthorName": "Stephen Crane",
    "bookAuthorMail": "StephenCrane@gmail.com"
  },
  {
    "bookAuthorName": "Margaret Mitchell",
    "bookAuthorMail": "MargaretMitchell@gmail.com"
  },
  {
    "bookAuthorName": "Boris Leonidovich Pasternak",
    "bookAuthorMail": "BorisLeonidovichPasternak@gmail.com"
  },
  {
    "bookAuthorName": "Toni Morrison",
    "bookAuthorMail": "ToniMorrison@gmail.com"
  },
  {
    "bookAuthorName": "Lew Wallace",
    "bookAuthorMail": "LewWallace@gmail.com"
  },
  {
    "bookAuthorName": "Alessandro Manzoni",
    "bookAuthorMail": "AlessandroManzoni@gmail.com"
  },
  {
    "bookAuthorName": "Markus Zusak",
    "bookAuthorMail": "MarkusZusak@gmail.com"
  },
  {
    "bookAuthorName": "Mildred D. Taylor",
    "bookAuthorMail": "MildredD.Taylor@gmail.com"
  },
  {
    "bookAuthorName": "Willa Cather",
    "bookAuthorMail": "WillaCather@gmail.com"
  },
  {
    "bookAuthorName": "Thornton Wilder",
    "bookAuthorMail": "ThorntonWilder@gmail.com"
  },
  {
    "bookAuthorName": "Kathryn Stockett",
    "bookAuthorMail": "KathrynStockett@gmail.com"
  },
  {
    "bookAuthorName": "Arthur Golden",
    "bookAuthorMail": "ArthurGolden@gmail.com"
  },
  {
    "bookAuthorName": "Chinua Achebe",
    "bookAuthorMail": "ChinuaAchebe@gmail.com"
  },
  {
    "bookAuthorName": "R.D. Blackmore",
    "bookAuthorMail": "R.D.Blackmore@gmail.com"
  },
  {
    "bookAuthorName": "Esther Forbes",
    "bookAuthorMail": "EstherForbes@gmail.com"
  },
  {
    "bookAuthorName": "Henryk Sienkiewicz",
    "bookAuthorMail": "HenrykSienkiewicz@gmail.com"
  },
  {
    "bookAuthorName": "Lois Lowry",
    "bookAuthorMail": "LoisLowry@gmail.com"
  },
  {
    "bookAuthorName": "Umberto Eco",
    "bookAuthorMail": "UmbertoEco@gmail.com"
  },
  {
    "bookAuthorName": "John Knowles",
    "bookAuthorMail": "JohnKnowles@gmail.com"
  },
  {
    "bookAuthorName": "Ken Follett",
    "bookAuthorMail": "KenFollett@gmail.com"
  },
  {
    "bookAuthorName": "Jean M. Auel",
    "bookAuthorMail": "JeanM.Auel@gmail.com"
  },
  {
    "bookAuthorName": "Edward Bulwer Lytton",
    "bookAuthorMail": "EdwardBulwerLytton@gmail.com"
  },
  {
    "bookAuthorName": "Michael Shaara",
    "bookAuthorMail": "MichaelShaara@gmail.com"
  },
  {
    "bookAuthorName": "Michael Ondaatje",
    "bookAuthorMail": "MichaelOndaatje@gmail.com"
  },
  {
    "bookAuthorName": "Charlotte Brontë",
    "bookAuthorMail": "CharlotteBrontë@gmail.com"
  },
  {
    "bookAuthorName": "Christopher Paul Curtis",
    "bookAuthorMail": "ChristopherPaulCurtis@gmail.com"
  },
  {
    "bookAuthorName": "Marguerite Henry",
    "bookAuthorMail": "MargueriteHenry@gmail.com"
  },
  {
    "bookAuthorName": "Giuseppe Tomasi di Lampedusa",
    "bookAuthorMail": "GiuseppeTomasidiLampedusa@gmail.com"
  },
  {
    "bookAuthorName": "Paula Fox",
    "bookAuthorMail": "PaulaFox@gmail.com"
  },
  {
    "bookAuthorName": "Virginia Woolf",
    "bookAuthorMail": "VirginiaWoolf@gmail.com"
  },
  {
    "bookAuthorName": "Kazuo Ishiguro",
    "bookAuthorMail": "KazuoIshiguro@gmail.com"
  },
  {
    "bookAuthorName": "Armstrong Sperry",
    "bookAuthorMail": "ArmstrongSperry@gmail.com"
  },
  {
    "bookAuthorName": "Arthur Koestler",
    "bookAuthorMail": "ArthurKoestler@gmail.com"
  },
  {
    "bookAuthorName": "Norman Mailer",
    "bookAuthorMail": "NormanMailer@gmail.com"
  },
  {
    "bookAuthorName": "Mary Shelley",
    "bookAuthorMail": "MaryShelley@gmail.com"
  },
  {
    "bookAuthorName": "Gaston Leroux",
    "bookAuthorMail": "GastonLeroux@gmail.com"
  },
  {
    "bookAuthorName": "Dan Brown",
    "bookAuthorMail": "DanBrown@gmail.com"
  },
  {
    "bookAuthorName": "Wilkie Collins",
    "bookAuthorMail": "WilkieCollins@gmail.com"
  },
  {
    "bookAuthorName": "Agatha Christie",
    "bookAuthorMail": "AgathaChristie@gmail.com"
  },
  {
    "bookAuthorName": "Graham Greene",
    "bookAuthorMail": "GrahamGreene@gmail.com"
  },
  {
    "bookAuthorName": "Mark Haddon",
    "bookAuthorMail": "MarkHaddon@gmail.com"
  },
  {
    "bookAuthorName": "John Grisham",
    "bookAuthorMail": "JohnGrisham@gmail.com"
  },
  {
    "bookAuthorName": "Sue Grafton",
    "bookAuthorMail": "SueGrafton@gmail.com"
  },
  {
    "bookAuthorName": "Janet Evanovich",
    "bookAuthorMail": "JanetEvanovich@gmail.com"
  },
  {
    "bookAuthorName": "Dashiell Hammett",
    "bookAuthorMail": "DashiellHammett@gmail.com"
  },
  {
    "bookAuthorName": "Donald J. Sobol",
    "bookAuthorMail": "DonaldJ.Sobol@gmail.com"
  },
  {
    "bookAuthorName": "Ellen Raskin",
    "bookAuthorMail": "EllenRaskin@gmail.com"
  },
  {
    "bookAuthorName": "Alexander McCall Smith",
    "bookAuthorMail": "AlexanderMcCallSmith@gmail.com"
  },
  {
    "bookAuthorName": "James Patterson",
    "bookAuthorMail": "JamesPatterson@gmail.com"
  },
  {
    "bookAuthorName": "Louise Fitzhugh",
    "bookAuthorMail": "LouiseFitzhugh@gmail.com"
  },
  {
    "bookAuthorName": "Harriet Beecher Stowe",
    "bookAuthorMail": "HarrietBeecherStowe@gmail.com"
  },
  {
    "bookAuthorName": "George Orwell",
    "bookAuthorMail": "GeorgeOrwell@gmail.com"
  },
  {
    "bookAuthorName": "Upton Sinclair",
    "bookAuthorMail": "UptonSinclair@gmail.com"
  },
  {
    "bookAuthorName": "E.M. Forster",
    "bookAuthorMail": "E.M.Forster@gmail.com"
  },
  {
    "bookAuthorName": "Alan Paton",
    "bookAuthorMail": "AlanPaton@gmail.com"
  },
  {
    "bookAuthorName": "Émile Zola",
    "bookAuthorMail": "ÉmileZola@gmail.com"
  },
  {
    "bookAuthorName": "Robert Penn Warren",
    "bookAuthorMail": "RobertPennWarren@gmail.com"
  },
  {
    "bookAuthorName": "Mikhail Bulgakov",
    "bookAuthorMail": "MikhailBulgakov@gmail.com"
  },
  {
    "bookAuthorName": "David Baldacci",
    "bookAuthorMail": "DavidBaldacci@gmail.com"
  },
  {
    "bookAuthorName": "Thomas Hardy",
    "bookAuthorMail": "ThomasHardy@gmail.com"
  },
  {
    "bookAuthorName": "Gabriel García Márquez",
    "bookAuthorMail": "GabrielGarcíaMárquez@gmail.com"
  },
  {
    "bookAuthorName": "Daphne Du Maurier",
    "bookAuthorMail": "DaphneDuMaurier@gmail.com"
  },
  {
    "bookAuthorName": "Stephenie Meyer",
    "bookAuthorMail": "StephenieMeyer@gmail.com"
  },
  {
    "bookAuthorName": "Theodore Dreiser",
    "bookAuthorMail": "TheodoreDreiser@gmail.com"
  },
  {
    "bookAuthorName": "John Steinbeck",
    "bookAuthorMail": "JohnSteinbeck@gmail.com"
  },
  {
    "bookAuthorName": "Vladimir Vladimirovich Nabokov",
    "bookAuthorMail": "VladimirVladimirovichNabokov@gmail.com"
  },
  {
    "bookAuthorName": "Sara Gruen",
    "bookAuthorMail": "SaraGruen@gmail.com"
  },
  {
    "bookAuthorName": "Laura Esquivel",
    "bookAuthorMail": "LauraEsquivel@gmail.com"
  },
  {
    "bookAuthorName": "John Green",
    "bookAuthorMail": "JohnGreen@gmail.com"
  },
  {
    "bookAuthorName": "Charles Frazier",
    "bookAuthorMail": "CharlesFrazier@gmail.com"
  },
  {
    "bookAuthorName": "Isabel Allende",
    "bookAuthorMail": "IsabelAllende@gmail.com"
  },
  {
    "bookAuthorName": "Robert James Waller",
    "bookAuthorMail": "RobertJamesWaller@gmail.com"
  },
  {
    "bookAuthorName": "Henry James",
    "bookAuthorMail": "HenryJames@gmail.com"
  },
  {
    "bookAuthorName": "Nora Roberts",
    "bookAuthorMail": "NoraRoberts@gmail.com"
  },
  {
    "bookAuthorName": "Ray Bradbury",
    "bookAuthorMail": "RayBradbury@gmail.com"
  },
  {
    "bookAuthorName": "Madeleine L'Engle",
    "bookAuthorMail": "MadeleineLEngle@gmail.com"
  },
  {
    "bookAuthorName": "H.G. Wells",
    "bookAuthorMail": "H.G.Wells@gmail.com"
  },
  {
    "bookAuthorName": "Suzanne Collins",
    "bookAuthorMail": "SuzanneCollins@gmail.com"
  },
  {
    "bookAuthorName": "Kurt Vonnegut",
    "bookAuthorMail": "KurtVonnegut@gmail.com"
  },
  {
    "bookAuthorName": "Anthony Burgess",
    "bookAuthorMail": "AnthonyBurgess@gmail.com"
  },
  {
    "bookAuthorName": "Ayn Rand",
    "bookAuthorMail": "AynRand@gmail.com"
  },
  {
    "bookAuthorName": "Orson Scott Card",
    "bookAuthorMail": "OrsonScottCard@gmail.com"
  },
  {
    "bookAuthorName": "Douglas Adams",
    "bookAuthorMail": "DouglasAdams@gmail.com"
  },
  {
    "bookAuthorName": "James Dashner",
    "bookAuthorMail": "JamesDashner@gmail.com"
  },
  {
    "bookAuthorName": "Michael Crichton",
    "bookAuthorMail": "MichaelCrichton@gmail.com"
  },
  {
    "bookAuthorName": "Robert A. Heinlein",
    "bookAuthorMail": "RobertA.Heinlein@gmail.com"
  },
  {
    "bookAuthorName": "Stieg Larsson",
    "bookAuthorMail": "StiegLarsson@gmail.com"
  },
  {
    "bookAuthorName": "Gillian Flynn",
    "bookAuthorMail": "GillianFlynn@gmail.com"
  },
  {
    "bookAuthorName": "Erich Maria Remarque",
    "bookAuthorMail": "ErichMariaRemarque@gmail.com"
  },
  {
    "bookAuthorName": "Joseph Heller",
    "bookAuthorMail": "JosephHeller@gmail.com"
  }
]